NTRES 6600 - Lesson 3
…
one called sp_count containing the number of each species observed.

The new data frame will be stored as inverts_long:

# Note: Either single-quotes, double-quotes, OR backticks around years work!
inverts_long <- pivot_longer(data = inverts, 
                                    cols = '2016':'2018',
                                    names_to = "year",
                                    values_to = "sp_count")

The outcome is the new long-format inverts_long data frame:

inverts_long

## # A tibble: 165 x 5
##    month site  common_name              year  sp_count
##    <chr> <chr> <chr>                    <chr>    <dbl>
##  1 7     abur  california cone snail    2016       451
##  2 7     abur  california cone snail    2017        28
##  3 7     abur  california cone snail    2018       762
##  4 7     abur  california spiny lobster 2016        17
##  5 7     abur  california spiny lobster 2017        17
##  6 7     abur  california spiny lobster 2018        16
##  7 7     abur  orange cup coral         2016        24
##  8 7     abur  orange cup coral         2017        24
##  9 7     abur  orange cup coral         2018        24
## 10 7     abur  purple urchin            2016        48
## #  with 155 more rows
…
Like pivot_longer(), pivot_wider() takes a data frame and returns a data frame. The arguments after the data argument that well need are:

names_from: the new column names are coming from an old column. Which column is this?

values_from: the values under the new columns are coming from an old column. Which column is this?

Specifically for our data, well use pivot_wider() to spread the common_name across multiple columns as follows:

inverts_wide <- inverts_long %>% 
  pivot_wider(names_from = common_name, 
                     values_from = sp_count)

inverts_wide

## # A tibble: 33 x 8
##    month site  year  `california con `california spi `orange cup cor
##    <chr> <chr> <chr>            <dbl>            <dbl>            <dbl>
##  1 7     abur  2016               451               17               24
##  2 7     abur  2017                28               17               24
##  3 7     abur  2018               762               16               24
##  4 7     ahnd  2016                27               16               24
##  5 7     ahnd  2017                24               16               24
##  6 7     ahnd  2018                24               16               24
##  7 7     aque  2016              4971               48             1526
##  8 7     aque  2017              1752               48             1623
##  9 7     aque  2018              2616               48             1859
## 10 7     bull  2016              1735               24               36
## #  with 23 more rows, and 2 more variables: `purple urchin` <dbl>, `rock
## #   scallop` <dbl>
…
